%YAML 1.1
%TAG !u! tag:unity3d.com,2011:
--- !u!78 &1
TagManager:
  serializedVersion: 2
  tags:
  - ground
  layers:
  - Default
  - TransparentFX
  - Ignore Raycast
  - 
  - Water
  - UI
  - 
  - 
  - Particles
  - 
  - 
  - 
  - 
  - 
  - 
  - 
  - 
  - 
  - 
  - 
  - 
  - 
  - 
  - 
  - 
  - 
  - 
  - 
  - 
  - 
  - 
  - 
  m_SortingLayers:
  - name: Default
    uniqueID: 0
    locked: 0
  - name: Background
    uniqueID: 2789806407
    locked: 0
  - name: Platforms
    uniqueID: 3221820749
    locked: 0
  - name: Enemies
    uniqueID: 3372709495
    locked: 0
  - name: Bullets
    uniqueID: 986488921
    locked: 0
  - name: Player
    uniqueID: 1814413689
    locked: 0
  - name: New Layer
    uniqueID: 4124381809
    locked: 0
